<svg xmlns="http://www.w3.org/2000/svg" viewBox="0 0 16 16">
  <defs>
    <style>
      .cls-1 {
        fill-rule: evenodd;
      }
    </style>
  </defs>
  <path id="path" class="cls-1" d="M21,6.6,19.4,5,13,11.4,6.6,5,5,6.6,11.4,13,5,19.4,6.6,21,13,14.6,19.4,21,21,19.4,14.6,13Z" transform="translate(-5 -5)"/>
</svg>
